…
``` r
US_deaths<- read.csv(urls[4])

global_cases <-global_cases %>%
pivot_longer(cols = -c(`Province/State`,                  `Country/Region`, Lat,Long),
names_to = "date",
values_to = "cases") %>%
select(-c(Lat,Long))
global_cases
```

    ## # A tibble: 176,328 × 4
    ##    `Province/State` `Country/Region` date    cases
    ##    <chr>            <chr>            <chr>   <dbl>
    ##  1 <NA>             Afghanistan      1/22/20     0
    ##  2 <NA>             Afghanistan      1/23/20     0
    ##  3 <NA>             Afghanistan      1/24/20     0
    ##  4 <NA>             Afghanistan      1/25/20     0
    ##  5 <NA>             Afghanistan      1/26/20     0
    ##  6 <NA>             Afghanistan      1/27/20     0
    ##  7 <NA>             Afghanistan      1/28/20     0
    ##  8 <NA>             Afghanistan      1/29/20     0
    ##  9 <NA>             Afghanistan      1/30/20     0
    ## 10 <NA>             Afghanistan      1/31/20     0
    ## # … with 176,318 more rows

``` r
global_deaths <-global_deaths %>%
pivot_longer(cols = -c(`Province/State`,                  `Country/Region`, Lat,Long),
names_to = "date",
values_to = "deaths") %>%
select(-c(Lat,Long))
global_deaths
```

    ## # A tibble: 176,328 × 4
    ##    `Province/State` `Country/Region` date    deaths
    ##    <chr>            <chr>            <chr>    <dbl>
    ##  1 <NA>             Afghanistan      1/22/20      0
    ##  2 <NA>             Afghanistan      1/23/20      0
    ##  3 <NA>             Afghanistan      1/24/20      0
    ##  4 <NA>             Afghanistan      1/25/20      0
    ##  5 <NA>             Afghanistan      1/26/20      0
    ##  6 <NA>             Afghanistan      1/27/20      0
    ##  7 <NA>             Afghanistan      1/28/20      0
    ##  8 <NA>             Afghanistan      1/29/20      0
    ##  9 <NA>             Afghanistan      1/30/20      0
    ## 10 <NA>             Afghanistan      1/31/20      0
    ## # … with 176,318 more rows
…
``` r
global <-global_cases %>%
  full_join(global_deaths) %>%
  rename(Country_Region = `Country/Region`,
         Province_State = `Province/State`) %>%
  mutate(date = mdy(date))
```

    ## Joining, by = c("Province/State", "Country/Region", "date")

``` r
global
```

    ## # A tibble: 176,328 × 5
    ##    Province_State Country_Region date       cases deaths
    ##    <chr>          <chr>          <date>     <dbl>  <dbl>
    ##  1 <NA>           Afghanistan    2020-01-22     0      0
    ##  2 <NA>           Afghanistan    2020-01-23     0      0
    ##  3 <NA>           Afghanistan    2020-01-24     0      0
    ##  4 <NA>           Afghanistan    2020-01-25     0      0
    ##  5 <NA>           Afghanistan    2020-01-26     0      0
    ##  6 <NA>           Afghanistan    2020-01-27     0      0
    ##  7 <NA>           Afghanistan    2020-01-28     0      0
    ##  8 <NA>           Afghanistan    2020-01-29     0      0
    ##  9 <NA>           Afghanistan    2020-01-30     0      0
    ## 10 <NA>           Afghanistan    2020-01-31     0      0
    ## # … with 176,318 more rows
…
    ## Warning: All formats failed to parse. No formats found.

``` r
global <- global %>%
   unite("Combined_Key",
         c(Province_State, Country_Region),
         sep = ",",
         na.rm = TRUE,
         remove = FALSE)


global
```

    ## # A tibble: 160,265 × 6
    ##    Combined_Key Province_State Country_Region date       cases deaths
    ##    <chr>        <chr>          <chr>          <date>     <dbl>  <dbl>
    ##  1 Afghanistan  <NA>           Afghanistan    2020-02-24     5      0
    ##  2 Afghanistan  <NA>           Afghanistan    2020-02-25     5      0
    ##  3 Afghanistan  <NA>           Afghanistan    2020-02-26     5      0
    ##  4 Afghanistan  <NA>           Afghanistan    2020-02-27     5      0
    ##  5 Afghanistan  <NA>           Afghanistan    2020-02-28     5      0
    ##  6 Afghanistan  <NA>           Afghanistan    2020-02-29     5      0
    ##  7 Afghanistan  <NA>           Afghanistan    2020-03-01     5      0
    ##  8 Afghanistan  <NA>           Afghanistan    2020-03-02     5      0
    ##  9 Afghanistan  <NA>           Afghanistan    2020-03-03     5      0
    ## 10 Afghanistan  <NA>           Afghanistan    2020-03-04     5      0
    ## # … with 160,255 more rows
…
